<?xml version="1.0" encoding="UTF-8"?>
<svg width="12px" height="14px" viewBox="0 0 12 14" version="1.1" xmlns="http://www.w3.org/2000/svg" xmlns:xlink="http://www.w3.org/1999/xlink">
    <title>Shape</title>
    <g id="-" stroke="none" stroke-width="1" fill="none" fill-rule="evenodd">
        <g id="Reports-(no-template-selected)" transform="translate(-1078.000000, -236.000000)" fill="#CCD6F6" fill-rule="nonzero">
            <g id="Group-4" transform="translate(1078.000000, 229.000000)">
                <path d="M10.7142857,8.69386873 L9.42857143,8.69386873 L9.42857143,7.31760039 C9.42857143,7.14292017 9.28392857,7 9.10714286,7 L8.03571429,7 C7.85892857,7 7.71428571,7.14292017 7.71428571,7.31760039 L7.71428571,8.69386873 L4.28571429,8.69386873 L4.28571429,7.31760039 C4.28571429,7.14292017 4.14107143,7 3.96428571,7 L2.89285714,7 C2.71607143,7 2.57142857,7.14292017 2.57142857,7.31760039 L2.57142857,8.69386873 L1.28571429,8.69386873 C0.575892857,8.69386873 0,9.26290275 0,9.96427027 L0,19.2805483 C0,19.9819158 0.575892857,20.5509498 1.28571429,20.5509498 L10.7142857,20.5509498 C11.4241071,20.5509498 12,19.9819158 12,19.2805483 L12,9.96427027 C12,9.26290275 11.4241071,8.69386873 10.7142857,8.69386873 Z M10.5535714,19.2805483 L1.44642857,19.2805483 C1.35803571,19.2805483 1.28571429,19.2090882 1.28571429,19.1217481 L1.28571429,11.2346718 L10.7142857,11.2346718 L10.7142857,19.1217481 C10.7142857,19.2090882 10.6419643,19.2805483 10.5535714,19.2805483 Z" id="Shape"></path>
            </g>
        </g>
    </g>
</svg>