<?xml version="1.0" encoding="UTF-8"?>
<svg viewBox="0 0 14 16" version="1.1" xmlns="http://www.w3.org/2000/svg" xmlns:xlink="http://www.w3.org/1999/xlink">
    <title>Group 18 Copy</title>
    <g id="-" stroke="none" stroke-width="1" fill="none" fill-rule="evenodd">
        <g id="List-type-dropdown" transform="translate(-61.000000, -219.000000)">
            <g id="Group-19" transform="translate(42.000000, 174.000000)">
                <g id="Group-18-Copy" transform="translate(19.000000, 45.000000)">
                    <rect id="Rectangle" stroke="#8892B0" x="0.5" y="0.5" width="13" height="14.8666667" rx="2"></rect>
                    <line x1="6.41666667" y1="5" x2="10.5833333" y2="5" id="Line-2" stroke="#8892B0" stroke-linecap="round"></line>
                    <line x1="6.41666667" y1="8" x2="10.5833333" y2="8" id="Line-2-Copy" stroke="#8892B0" stroke-linecap="round"></line>
                    <circle id="Oval" fill="#8892B0" cx="3.5" cy="5" r="1"></circle>
                    <circle id="Oval-Copy-3" fill="#8892B0" cx="3.5" cy="8" r="1"></circle>
                    <line x1="6.41666667" y1="11" x2="10.5833333" y2="11" id="Line-2-Copy-2" stroke="#8892B0" stroke-linecap="round"></line>
                    <circle id="Oval-Copy-4" fill="#8892B0" cx="3.5" cy="11" r="1"></circle>
                </g>
            </g>
        </g>
    </g>
</svg>