<?xml version="1.0" encoding="UTF-8"?>
<svg width="20px" height="20px" viewBox="1 -2 6 20" version="1.1" xmlns="http://www.w3.org/2000/svg" xmlns:xlink="http://www.w3.org/1999/xlink">
    <title>Group 2 Copy 11</title>
    <g id="-" stroke="none" stroke-width="1" fill="none" fill-rule="evenodd">
        <g id="Default-template-card" transform="translate(-569.000000, -20.000000)" fill="#CCD6F6">
            <g id="Ovals" transform="translate(571.000000, 29.000000) rotate(-270.000000) translate(-571.000000, -29.000000) translate(562.000000, 27.000000)">
                <circle id="Oval" transform="translate(16.000000, 2.000000) rotate(-270.000000) translate(-16.000000, -2.000000) " cx="16" cy="2" r="2"></circle>
                <circle id="Oval" transform="translate(9.000000, 2.000000) rotate(-270.000000) translate(-9.000000, -2.000000) " cx="9" cy="2" r="2"></circle>
                <circle id="Oval" transform="translate(2.000000, 2.000000) rotate(-270.000000) translate(-2.000000, -2.000000) " cx="2" cy="2" r="2"></circle>
            </g>
        </g>
    </g>
</svg>
